{
 "autoname": "EMPB.#####",
 "creation": "2020-06-15 15:22:01.597553",
 "doctype": "DocType",
 "editable_grid": 1,
 "engine": "InnoDB",
 "field_order": [
  "employee",
  "column_break_2",
  "posting_date",
  "section_break_4",
  "from_date",
  "column_break_6",
  "to_date",
  "section_break_8",
  "items",
  "grand_total",
  "amended_from"
 ],
 "fields": [
  {
   "fieldname": "employee",
   "fieldtype": "Link",
   "in_list_view": 1,
   "label": "Employee",
   "options": "Employee"
  },
  {
   "fieldname": "column_break_2",
   "fieldtype": "Column Break"
  },
  {
   "fieldname": "posting_date",
   "fieldtype": "Date",
   "label": "Posting Date"
  },
  {
   "fieldname": "section_break_4",
   "fieldtype": "Section Break"
  },
  {
   "fieldname": "from_date",
   "fieldtype": "Date",
   "label": "From Date"
  },
  {
   "fieldname": "column_break_6",
   "fieldtype": "Column Break"
  },
  {
   "fieldname": "to_date",
   "fieldtype": "Date",
   "label": "To Date"
  },
  {
   "fieldname": "items",
   "fieldtype": "Table",
   "label": "Employee Bill Items",
   "options": "Employee Bill Items"
  },
  {
   "fieldname": "grand_total",
   "fieldtype": "Currency",
   "in_list_view": 1,
   "label": "Grand Total",
   "read_only": 1
  },
  {
   "fieldname": "section_break_8",
   "fieldtype": "Section Break"
  },
  {
   "fieldname": "amended_from",
   "fieldtype": "Link",
   "label": "Amended From",
   "no_copy": 1,
   "options": "Employee Bill",
   "print_hide": 1,
   "read_only": 1
  }
 ],
 "is_submittable": 1,
 "modified": "2020-06-15 21:42:14.541953",
 "modified_by": "Administrator",
 "module": "Schmidt",
 "name": "Employee Bill",
 "owner": "Administrator",
 "permissions": [
  {
   "cancel": 1,
   "create": 1,
   "delete": 1,
   "email": 1,
   "export": 1,
   "print": 1,
   "read": 1,
   "report": 1,
   "role": "System Manager",
   "share": 1,
   "submit": 1,
   "write": 1
  },
  {
   "cancel": 1,
   "create": 1,
   "delete": 1,
   "email": 1,
   "export": 1,
   "print": 1,
   "read": 1,
   "report": 1,
   "role": "Schmidt Manager",
   "share": 1,
   "submit": 1,
   "write": 1
  }
 ],
 "sort_field": "modified",
 "sort_order": "DESC",
 "track_changes": 1
}