{
 "creation": "2020-04-03 12:29:23.718761",
 "doctype": "DocType",
 "editable_grid": 1,
 "engine": "InnoDB",
 "field_order": [
  "job_title",
  "job_type",
  "fixed_amount",
  "hour_rate",
  "invoice_item",
  "column_break_5",
  "start_date",
  "end_date",
  "estimate_hours",
  "project",
  "status",
  "dispatch_section",
  "employee_project_assign",
  "notes_section",
  "notes",
  "time_details_section",
  "total_hours",
  "total_hours_format",
  "dispatched",
  "address_line1",
  "estimation",
  "estimate",
  "estimate_doctype",
  "first_ph_job"
 ],
 "fields": [
  {
   "fieldname": "job_title",
   "fieldtype": "Data",
   "hidden": 1,
   "label": "Job Title",
   "unique": 1
  },
  {
   "fieldname": "job_type",
   "fieldtype": "Select",
   "in_list_view": 1,
   "label": "Job Type",
   "options": "\nFixed Job\nPerHour Job",
   "reqd": 1
  },
  {
   "depends_on": "eval:doc.job_type==\"Fixed Job\"",
   "fieldname": "fixed_amount",
   "fieldtype": "Float",
   "label": "Fixed Amount"
  },
  {
   "depends_on": "eval:doc.job_type==\"PerHour Job\"",
   "fieldname": "hour_rate",
   "fieldtype": "Float",
   "label": "Hour Rate"
  },
  {
   "fieldname": "start_date",
   "fieldtype": "Date",
   "label": "Start Date"
  },
  {
   "fieldname": "end_date",
   "fieldtype": "Date",
   "label": "End Date"
  },
  {
   "fieldname": "column_break_5",
   "fieldtype": "Column Break"
  },
  {
   "fieldname": "dispatch_section",
   "fieldtype": "Section Break",
   "label": "Dispatch"
  },
  {
   "fieldname": "employee_project_assign",
   "fieldtype": "Table",
   "label": "Dispatch",
   "options": "Employee Project Assign"
  },
  {
   "collapsible": 1,
   "fieldname": "notes_section",
   "fieldtype": "Section Break",
   "label": "Notes"
  },
  {
   "fieldname": "notes",
   "fieldtype": "Small Text",
   "label": "Notes"
  },
  {
   "collapsible": 1,
   "fieldname": "time_details_section",
   "fieldtype": "Section Break",
   "label": "Time Details"
  },
  {
   "fieldname": "total_hours",
   "fieldtype": "Float",
   "label": "Total Hours",
   "read_only": 1
  },
  {
   "default": "0",
   "fieldname": "dispatched",
   "fieldtype": "Check",
   "hidden": 1,
   "label": "Dispatched"
  },
  {
   "fieldname": "status",
   "fieldtype": "Select",
   "hidden": 1,
   "label": "Status",
   "options": "Open\nCompleted\nClosed",
   "read_only": 1
  },
  {
   "fieldname": "estimate_hours",
   "fieldtype": "Float",
   "label": "Estimate Hours"
  },
  {
   "fieldname": "project",
   "fieldtype": "Link",
   "label": "Project",
   "options": "Schmidt Project",
   "read_only": 1
  },
  {
   "fieldname": "invoice_item",
   "fieldtype": "Link",
   "label": "Invoice Item",
   "options": "Job Item"
  },
  {
   "fieldname": "address_line1",
   "fieldtype": "Data",
   "hidden": 1,
   "label": "Address Line1"
  },
  {
   "fieldname": "estimation",
   "fieldtype": "Data",
   "hidden": 1,
   "label": "Estimation"
  },
  {
   "fieldname": "estimate",
   "fieldtype": "Select",
   "hidden": 1,
   "label": "Estimate",
   "options": "\nEXT\nINT\nPW"
  },
  {
   "fieldname": "estimate_doctype",
   "fieldtype": "Data",
   "hidden": 1,
   "label": "Estimate Doctype"
  },
  {
   "fieldname": "total_hours_format",
   "fieldtype": "Read Only",
   "label": "Total Hours Format"
  },
  {
   "default": "0",
   "fieldname": "first_ph_job",
   "fieldtype": "Check",
   "hidden": 1,
   "label": "First PH Job"
  }
 ],
 "modified": "2020-07-23 11:25:41.614934",
 "modified_by": "Administrator",
 "module": "Schmidt",
 "name": "Job",
 "owner": "Administrator",
 "permissions": [
  {
   "create": 1,
   "delete": 1,
   "email": 1,
   "export": 1,
   "print": 1,
   "read": 1,
   "report": 1,
   "role": "System Manager",
   "share": 1,
   "write": 1
  }
 ],
 "sort_field": "modified",
 "sort_order": "DESC"
}