{
 "creation": "2020-06-15 15:20:55.217159",
 "doctype": "DocType",
 "editable_grid": 1,
 "engine": "InnoDB",
 "field_order": [
  "job_name",
  "total_hours",
  "rate",
  "amount"
 ],
 "fields": [
  {
   "fieldname": "job_name",
   "fieldtype": "Data",
   "in_list_view": 1,
   "label": "Job Name"
  },
  {
   "fieldname": "total_hours",
   "fieldtype": "Float",
   "in_list_view": 1,
   "label": "Total Hours"
  },
  {
   "fieldname": "rate",
   "fieldtype": "Currency",
   "in_list_view": 1,
   "label": "Rate"
  },
  {
   "fieldname": "amount",
   "fieldtype": "Currency",
   "in_list_view": 1,
   "label": "Amount"
  }
 ],
 "istable": 1,
 "modified": "2020-06-15 15:59:44.711188",
 "modified_by": "Administrator",
 "module": "Schmidt",
 "name": "Employee Bill Items",
 "owner": "Administrator",
 "permissions": [],
 "quick_entry": 1,
 "sort_field": "modified",
 "sort_order": "DESC",
 "track_changes": 1
}